%YAML 1.1
%TAG !u! tag:unity3d.com,2011:
--- !u!1 &1022196783953548958
GameObject:
  m_ObjectHideFlags: 0
  m_CorrespondingSourceObject: {fileID: 0}
  m_PrefabInstance: {fileID: 0}
  m_PrefabAsset: {fileID: 0}
  serializedVersion: 6
  m_Component:
  - component: {fileID: 1757198520670403078}
  - component: {fileID: 7651607449772539474}
  m_Layer: 0
  m_Name: We three trees
  m_TagString: Untagged
  m_Icon: {fileID: 0}
  m_NavMeshLayer: 0
  m_StaticEditorFlags: 0
  m_IsActive: 1
--- !u!4 &1757198520670403078
Transform:
  m_ObjectHideFlags: 0
  m_CorrespondingSourceObject: {fileID: 0}
  m_PrefabInstance: {fileID: 0}
  m_PrefabAsset: {fileID: 0}
  m_GameObject: {fileID: 1022196783953548958}
  m_LocalRotation: {x: 0, y: 0, z: 0, w: 1}
  m_LocalPosition: {x: 60, y: 0, z: 39.6875}
  m_LocalScale: {x: 1, y: 1, z: 1}
  m_Children:
  - {fileID: 1858175192446719021}
  m_Father: {fileID: 0}
  m_RootOrder: 0
  m_LocalEulerAnglesHint: {x: 0, y: 0, z: 0}
--- !u!65 &7651607449772539474
BoxCollider:
  m_ObjectHideFlags: 0
  m_CorrespondingSourceObject: {fileID: 0}
  m_PrefabInstance: {fileID: 0}
  m_PrefabAsset: {fileID: 0}
  m_GameObject: {fileID: 1022196783953548958}
  m_Material: {fileID: 0}
  m_IsTrigger: 0
  m_Enabled: 1
  serializedVersion: 2
  m_Size: {x: 10, y: 10, z: 10}
  m_Center: {x: 0, y: 5, z: 0}
--- !u!1001 &8028288551210330059
PrefabInstance:
  m_ObjectHideFlags: 0
  serializedVersion: 2
  m_Modification:
    m_TransformParent: {fileID: 1757198520670403078}
    m_Modifications:
    - target: {fileID: 28638790764712325, guid: 7fb8d74871fa9c74cab9389cd54e2860, type: 3}
      propertyPath: m_StaticEditorFlags
      value: 4294967295
      objectReference: {fileID: 0}
    - target: {fileID: 8548858593238119398, guid: 7fb8d74871fa9c74cab9389cd54e2860, type: 3}
      propertyPath: m_RootOrder
      value: 0
      objectReference: {fileID: 0}
    - target: {fileID: 8548858593238119398, guid: 7fb8d74871fa9c74cab9389cd54e2860, type: 3}
      propertyPath: m_LocalPosition.x
      value: 0
      objectReference: {fileID: 0}
    - target: {fileID: 8548858593238119398, guid: 7fb8d74871fa9c74cab9389cd54e2860, type: 3}
      propertyPath: m_LocalPosition.y
      value: 0
      objectReference: {fileID: 0}
    - target: {fileID: 8548858593238119398, guid: 7fb8d74871fa9c74cab9389cd54e2860, type: 3}
      propertyPath: m_LocalPosition.z
      value: 0
      objectReference: {fileID: 0}
    - target: {fileID: 8548858593238119398, guid: 7fb8d74871fa9c74cab9389cd54e2860, type: 3}
      propertyPath: m_LocalRotation.w
      value: 1
      objectReference: {fileID: 0}
    - target: {fileID: 8548858593238119398, guid: 7fb8d74871fa9c74cab9389cd54e2860, type: 3}
      propertyPath: m_LocalRotation.x
      value: -0
      objectReference: {fileID: 0}
    - target: {fileID: 8548858593238119398, guid: 7fb8d74871fa9c74cab9389cd54e2860, type: 3}
      propertyPath: m_LocalRotation.y
      value: -0
      objectReference: {fileID: 0}
    - target: {fileID: 8548858593238119398, guid: 7fb8d74871fa9c74cab9389cd54e2860, type: 3}
      propertyPath: m_LocalRotation.z
      value: -0
      objectReference: {fileID: 0}
    - target: {fileID: 8548858593238119398, guid: 7fb8d74871fa9c74cab9389cd54e2860, type: 3}
      propertyPath: m_LocalEulerAnglesHint.x
      value: 0
      objectReference: {fileID: 0}
    - target: {fileID: 8548858593238119398, guid: 7fb8d74871fa9c74cab9389cd54e2860, type: 3}
      propertyPath: m_LocalEulerAnglesHint.y
      value: 0
      objectReference: {fileID: 0}
    - target: {fileID: 8548858593238119398, guid: 7fb8d74871fa9c74cab9389cd54e2860, type: 3}
      propertyPath: m_LocalEulerAnglesHint.z
      value: 0
      objectReference: {fileID: 0}
    - target: {fileID: 9072630317142026588, guid: 7fb8d74871fa9c74cab9389cd54e2860, type: 3}
      propertyPath: m_Name
      value: Tree_Group
      objectReference: {fileID: 0}
    m_RemovedComponents: []
  m_SourcePrefab: {fileID: 100100000, guid: 7fb8d74871fa9c74cab9389cd54e2860, type: 3}
--- !u!4 &1858175192446719021 stripped
Transform:
  m_CorrespondingSourceObject: {fileID: 8548858593238119398, guid: 7fb8d74871fa9c74cab9389cd54e2860, type: 3}
  m_PrefabInstance: {fileID: 8028288551210330059}
  m_PrefabAsset: {fileID: 0}
